test_mat_mul_01/component_source/waveform.vcd
$date
  Wed May  2 17:14:10 2018
$end
$version
  GHDL v0
$end
$timescale
  1 fs
$end
$var reg 1 ! clk $end
$var reg 1 " reset $end
$var reg 1 # read $end
$var reg 1 $ write $end
$var reg 5 % address[4:0] $end
$var reg 32 & readdata[31:0] $end
$var reg 32 ' writedata[31:0] $end
$scope module uut $end
$var reg 1 ( clk $end
$var reg 1 ) reset $end
$var reg 5 * address[4:0] $end
$var reg 1 + read $end
$var reg 1 , write $end
$var reg 32 - readdata[31:0] $end
$var reg 32 . writedata[31:0] $end
$var reg 32 / a11[31:0] $end
$var reg 32 0 a12[31:0] $end
$var reg 32 1 a13[31:0] $end
$var reg 32 2 a14[31:0] $end
$var reg 32 3 a21[31:0] $end
$var reg 32 4 a22[31:0] $end
$var reg 32 5 a23[31:0] $end
$var reg 32 6 a24[31:0] $end
$var reg 32 7 a31[31:0] $end
$var reg 32 8 a32[31:0] $end
$var reg 32 9 a33[31:0] $end
$var reg 32 : a34[31:0] $end
$var reg 32 ; a41[31:0] $end
$var reg 32 < a42[31:0] $end
$var reg 32 = a43[31:0] $end
$var reg 32 > a44[31:0] $end
$var reg 32 ? x1[31:0] $end
$var reg 32 @ x2[31:0] $end
$var reg 32 A x3[31:0] $end
$var reg 32 B x4[31:0] $end
$var reg 32 C b1[31:0] $end
$var reg 32 D b2[31:0] $end
$var reg 32 E b3[31:0] $end
$var reg 32 F b4[31:0] $end
$var reg 32 G control_and_status_reg[31:0] $end
$comment state is not handled $end
$var reg 32 H mult1_reg1[31:0] $end
$var reg 32 I mult1_reg2[31:0] $end
$var reg 32 J mult2_reg1[31:0] $end
$var reg 32 K mult2_reg2[31:0] $end
$var reg 32 L mult3_reg1[31:0] $end
$var reg 32 M mult3_reg2[31:0] $end
$var reg 32 N mult4_reg1[31:0] $end
$var reg 32 O mult4_reg2[31:0] $end
$var reg 32 P mult1_out_add1_in[31:0] $end
$var reg 32 Q mult2_out_add1_in[31:0] $end
$var reg 32 R mult3_out_add2_in[31:0] $end
$var reg 32 S mult4_out_add2_in[31:0] $end
$var reg 32 T add1_out_add3_in[31:0] $end
$var reg 32 U add2_out_add3_in[31:0] $end
$var reg 32 V add3_out[31:0] $end
$scope module mult1 $end
$upscope $end
$scope module mult2 $end
$upscope $end
$scope module mult3 $end
$upscope $end
$scope module mult4 $end
$upscope $end
$scope module add1 $end
$upscope $end
$scope module add2 $end
$upscope $end
$scope module add3 $end
$upscope $end
$upscope $end
$enddefinitions $end
#0
0!
1"
0#
0$
bUUUUU %
bUUUUUUUUUUUUUUUUUUUUUUUUUUUUUUUU &
bUUUUUUUUUUUUUUUUUUUUUUUUUUUUUUUU '
0(
1)
bUUUUU *
0+
0,
bUUUUUUUUUUUUUUUUUUUUUUUUUUUUUUUU -
bUUUUUUUUUUUUUUUUUUUUUUUUUUUUUUUU .
bUUUUUUUUUUUUUUUUUUUUUUUUUUUUUUUU /
bUUUUUUUUUUUUUUUUUUUUUUUUUUUUUUUU 0
bUUUUUUUUUUUUUUUUUUUUUUUUUUUUUUUU 1
bUUUUUUUUUUUUUUUUUUUUUUUUUUUUUUUU 2
bUUUUUUUUUUUUUUUUUUUUUUUUUUUUUUUU 3
bUUUUUUUUUUUUUUUUUUUUUUUUUUUUUUUU 4
bUUUUUUUUUUUUUUUUUUUUUUUUUUUUUUUU 5
bUUUUUUUUUUUUUUUUUUUUUUUUUUUUUUUU 6
bUUUUUUUUUUUUUUUUUUUUUUUUUUUUUUUU 7
bUUUUUUUUUUUUUUUUUUUUUUUUUUUUUUUU 8
bUUUUUUUUUUUUUUUUUUUUUUUUUUUUUUUU 9
bUUUUUUUUUUUUUUUUUUUUUUUUUUUUUUUU :
bUUUUUUUUUUUUUUUUUUUUUUUUUUUUUUUU ;
bUUUUUUUUUUUUUUUUUUUUUUUUUUUUUUUU <
bUUUUUUUUUUUUUUUUUUUUUUUUUUUUUUUU =
bUUUUUUUUUUUUUUUUUUUUUUUUUUUUUUUU >
bUUUUUUUUUUUUUUUUUUUUUUUUUUUUUUUU ?
bUUUUUUUUUUUUUUUUUUUUUUUUUUUUUUUU @
bUUUUUUUUUUUUUUUUUUUUUUUUUUUUUUUU A
bUUUUUUUUUUUUUUUUUUUUUUUUUUUUUUUU B
bUUUUUUUUUUUUUUUUUUUUUUUUUUUUUUUU C
bUUUUUUUUUUUUUUUUUUUUUUUUUUUUUUUU D
bUUUUUUUUUUUUUUUUUUUUUUUUUUUUUUUU E
bUUUUUUUUUUUUUUUUUUUUUUUUUUUUUUUU F
bUUUUUUUUUUUUUUUUUUUUUUUUUUUUUUUU G
bUUUUUUUUUUUUUUUUUUUUUUUUUUUUUUUU H
bUUUUUUUUUUUUUUUUUUUUUUUUUUUUUUUU I
bUUUUUUUUUUUUUUUUUUUUUUUUUUUUUUUU J
bUUUUUUUUUUUUUUUUUUUUUUUUUUUUUUUU K
bUUUUUUUUUUUUUUUUUUUUUUUUUUUUUUUU L
bUUUUUUUUUUUUUUUUUUUUUUUUUUUUUUUU M
bUUUUUUUUUUUUUUUUUUUUUUUUUUUUUUUU N
bUUUUUUUUUUUUUUUUUUUUUUUUUUUUUUUU O
bUUUUUUUUUUUUUUUUUUUUUUUUUUUUUUUU P
bUUUUUUUUUUUUUUUUUUUUUUUUUUUUUUUU Q
bUUUUUUUUUUUUUUUUUUUUUUUUUUUUUUUU R
bUUUUUUUUUUUUUUUUUUUUUUUUUUUUUUUU S
bUUUUUUUUUUUUUUUUUUUUUUUUUUUUUUUU T
bUUUUUUUUUUUUUUUUUUUUUUUUUUUUUUUU U
bUUUUUUUUUUUUUUUUUUUUUUUUUUUUUUUU V
#20000000
1!
1(
#40000000
0!
0(
#60000000
1!
1(
#80000000
0!
0"
0(
0)
#100000000
1!
1(
#120000000
0!
0(
#140000000
1!
1(
#160000000
0!
0(
#180000000
1!
1(
#200000000
0!
0(
#220000000
1!
1$
b00001 %
b00111111100000000000000000000000 '
1(
b00001 *
1,
b00111111100000000000000000000000 .
#240000000
0!
0(
#260000000
1!
0$
1(
0,
b00111111100000000000000000000000 /
#280000000
0!
0(
#300000000
1!
1(
#320000000
0!
0(
#340000000
1!
1$
b00010 %
b01000000000000000000000000000000 '
1(
b00010 *
1,
b01000000000000000000000000000000 .
#360000000
0!
0(
#380000000
1!
0$
1(
0,
b01000000000000000000000000000000 0
#400000000
0!
0(
#420000000
1!
1(
#440000000
0!
0(
#460000000
1!
1$
b00011 %
b01000000010000000000000000000000 '
1(
b00011 *
1,
b01000000010000000000000000000000 .
#480000000
0!
0(
#500000000
1!
0$
1(
0,
b01000000010000000000000000000000 1
#520000000
0!
0(
#540000000
1!
1(
#560000000
0!
0(
#580000000
1!
1$
b00100 %
b01000000100000000000000000000000 '
1(
b00100 *
1,
b01000000100000000000000000000000 .
#600000000
0!
0(
#620000000
1!
0$
1(
0,
b01000000100000000000000000000000 2
#640000000
0!
0(
#660000000
1!
1(
#680000000
0!
0(
#700000000
1!
1$
b00101 %
b01000001001100000000000000000000 '
1(
b00101 *
1,
b01000001001100000000000000000000 .
#720000000
0!
0(
#740000000
1!
0$
1(
0,
b01000001001100000000000000000000 3
#760000000
0!
0(
#780000000
1!
1(
#800000000
0!
0(
#820000000
1!
1$
b00110 %
b01000001010000000000000000000000 '
1(
b00110 *
1,
b01000001010000000000000000000000 .
#840000000
0!
0(
#860000000
1!
0$
1(
0,
b01000001010000000000000000000000 4
#880000000
0!
0(
#900000000
1!
1(
#920000000
0!
0(
#940000000
1!
1$
b00111 %
b01000001010100000000000000000000 '
1(
b00111 *
1,
b01000001010100000000000000000000 .
#960000000
0!
0(
#980000000
1!
0$
1(
0,
b01000001010100000000000000000000 5
#1000000000
0!
0(
#1020000000
1!
1(
#1040000000
0!
0(
#1060000000
1!
1$
b01000 %
b01000001011000000000000000000000 '
1(
b01000 *
1,
b01000001011000000000000000000000 .
#1080000000
0!
0(
#1100000000
1!
0$
1(
0,
b01000001011000000000000000000000 6
#1120000000
0!
0(
#1140000000
1!
1(
#1160000000
0!
0(
#1180000000
1!
1$
b01001 %
b01000001101010000000000000000000 '
1(
b01001 *
1,
b01000001101010000000000000000000 .
#1200000000
0!
0(
#1220000000
1!
0$
1(
0,
b01000001101010000000000000000000 7
#1240000000
0!
0(
#1260000000
1!
1(
#1280000000
0!
0(
#1300000000
1!
1$
b01010 %
b01000001101100000000000000000000 '
1(
b01010 *
1,
b01000001101100000000000000000000 .
#1320000000
0!
0(
#1340000000
1!
0$
1(
0,
b01000001101100000000000000000000 8
#1360000000
0!
0(
#1380000000
1!
1(
#1400000000
0!
0(
#1420000000
1!
1$
b01011 %
b01000001101110000000000000000000 '
1(
b01011 *
1,
b01000001101110000000000000000000 .
#1440000000
0!
0(
#1460000000
1!
0$
1(
0,
b01000001101110000000000000000000 9
#1480000000
0!
0(
#1500000000
1!
1(
#1520000000
0!
0(
#1540000000
1!
1$
b10000 %
b01000001110000000000000000000000 '
1(
b10000 *
1,
b01000001110000000000000000000000 .
#1560000000
0!
0(
#1580000000
1!
0$
1(
0,
b01000001110000000000000000000000 >
#1600000000
0!
0(
#1620000000
1!
1(
#1640000000
0!
0(
#1660000000
1!
1$
b10001 %
b01000001111110000000000000000000 '
1(
b10001 *
1,
b01000001111110000000000000000000 .
#1680000000
0!
0(
#1700000000
1!
0$
1(
0,
b01000001111110000000000000000000 ?
#1720000000
0!
0(
#1740000000
1!
1(
#1760000000
0!
0(
#1780000000
1!
1$
b10010 %
b01000010000000000000000000000000 '
1(
b10010 *
1,
b01000010000000000000000000000000 .
#1800000000
0!
0(
#1820000000
1!
0$
1(
0,
b01000010000000000000000000000000 @
#1840000000
0!
0(
#1860000000
1!
1(
#1880000000
0!
0(
#1900000000
1!
1$
b10011 %
b01000010000001000000000000000000 '
1(
b10011 *
1,
b01000010000001000000000000000000 .
#1920000000
0!
0(
#1940000000
1!
0$
1(
0,
b01000010000001000000000000000000 A
#1960000000
0!
0(
#1980000000
1!
1(
#2000000000
0!
0(
#2020000000
1!
1$
b10100 %
b01000010000010000000000000000000 '
1(
b10100 *
1,
b01000010000010000000000000000000 .
#2040000000
0!
0(
#2060000000
1!
0$
1(
0,
b01000010000010000000000000000000 B
#2080000000
0!
0(
#2100000000
1!
1(
#2120000000
0!
0(
#2140000000
1!
1$
b00000 %
b00000000000000000000000000000001 '
1(
b00000 *
1,
b00000000000000000000000000000001 .
#2160000000
0!
0(
#2180000000
1!
0$
1(
0,
b00000000000000000000000000000001 G
#2200000000
0!
0(
#2220000000
1!
1(
b00000000000000000000000000000011 G
#2240000000
0!
0(
#2260000000
1!
1#
1(
1+
b00111111100000000000000000000000 H
b01000001111110000000000000000000 I
b01000000000000000000000000000000 J
b01000010000000000000000000000000 K
b01000000010000000000000000000000 L
b01000010000001000000000000000000 M
b01000000100000000000000000000000 N
b01000010000010000000000000000000 O
#2280000000
0!
0(
#2300000000
1!
b00000000000000000000000000000011 &
1(
b00000000000000000000000000000011 -
#2301000000
0#
0+
#2320000000
0!
0(
#2340000000
1!
1(
#2360000000
0!
0(
#2380000000
1!
1(
#2400000000
0!
0(
#2420000000
1!
1#
1(
1+
#2440000000
0!
0(
#2460000000
1!
1(
#2461000000
0#
0+
#2480000000
0!
0(
#2500000000
1!
1(
#2520000000
0!
0(
#2540000000
1!
1(
#2560000000
0!
0(
#2580000000
1!
1#
1(
1+
#2600000000
0!
0(
#2620000000
1!
1(
#2621000000
0#
0+
#2640000000
0!
0(
#2660000000
1!
1(
#2680000000
0!
0(
#2700000000
1!
1(
#2720000000
0!
0(
#2740000000
1!
1#
1(
1+
#2760000000
0!
0(
#2780000000
1!
1(
#2781000000
0#
0+
#2800000000
0!
0(
#2820000000
1!
1(
#2840000000
0!
0(
#2860000000
1!
1(
#2880000000
0!
0(
#2900000000
1!
1#
1(
1+
#2920000000
0!
0(
#2940000000
1!
1(
#2941000000
0#
0+
#2960000000
0!
0(
#2980000000
1!
1(
#3000000000
0!
0(
#3020000000
1!
1(
#3040000000
0!
0(
#3060000000
1!
1#
1(
1+
#3080000000
0!
0(
#3100000000
1!
1(
#3101000000
0#
0+
#3120000000
0!
0(
#3140000000
1!
1(
#3160000000
0!
0(
#3180000000
1!
1(
#3200000000
0!
0(
#3220000000
1!
1#
1(
1+
#3240000000
0!
0(
#3260000000
1!
1(
#3261000000
0#
0+
#3280000000
0!
0(
#3300000000
1!
1(
#3320000000
0!
0(
#3340000000
1!
1(
#3360000000
0!
0(
#3380000000
1!
1#
1(
1+
#3400000000
0!
0(
#3420000000
1!
1(
#3421000000
0#
0+
#3440000000
0!
0(
#3460000000
1!
1(
b00000000000000000000000000000000 G
#3480000000
0!
0(
#3500000000
1!
1(
#3520000000
0!
0(
#3540000000
1!
1#
1(
1+
#3560000000
0!
0(
#3580000000
1!
b00000000000000000000000000000000 &
1(
b00000000000000000000000000000000 -
#3581000000
0#
0+
#3600000000
0!
0(
#3620000000
1!
1(
#3640000000
0!
0(
#3660000000
1!
1(
#3680000000
0!
0(
#3700000000
1!
1#
b10101 %
1(
b10101 *
1+
#3720000000
0!
0(
#3740000000
1!
bUUUUUUUUUUUUUUUUUUUUUUUUUUUUUUUU &
1(
bUUUUUUUUUUUUUUUUUUUUUUUUUUUUUUUU -
#3741000000
0#
0+
